INDEX VERSION 1.131+F:\Middleware en JAVA\Workespace\.metadata\.plugins\org.eclipse.jdt.core
3923357796.index
1190568560.index
3735350768.index
4267283917.index
3382250361.index
237445142.index
3388333077.index
286652303.index
515444843.index
2840102439.index
3433615918.index
1078848896.index
4233958111.index
344920275.index
2093285861.index
377180476.index
1938798840.index
2769515786.index
4273706875.index
2727795216.index
376405248.index
3315616389.index
73860848.index
4177337902.index
2563776680.index
2452728352.index
2377276628.index
1669009097.index
1190068350.index
1274545716.index
2047344423.index
1340606454.index
981874312.index
2386639597.index
4263848083.index
2094301058.index
1044230057.index
2300663105.index
1230926063.index
2955954938.index
