<?xml version="1.0" encoding="UTF-8"?>
<session version="1.0">
<refactoring comment="Delete resource &apos;converter2&apos;" deleteContents="false" description="Delete resource &apos;converter2&apos;" element1="/converter2" flags="7" id="org.eclipse.ltk.core.refactoring.delete.resources" resources="1" stamp="1531230461600"/>
</session>